32403705	Leandro             	politano            	M	01/06/2023	true 	
32403704	pepe             	politano            	M	02/06/2023	true 	
32403703	tito             	politano            	M	03/06/2023	true 	
45645666	alexis              	burgoaweqwq         	m	02/06/2023	false	
32403799	toto             	poli            	M	08/06/2023	false 	
12312312	a                   	a                   	m	06/06/2023	false	
78978999	l                   	l                   	f	23/06/2023	false	